"ASIN","Title","Category","Description","Rating","Thumbnail","AffiateLink","base64"
"B06XCYMWJ6","Hailys Women's Ls C Djk Enny Denim Jacket","Women,Coats & Jackets,Jackets","","4.5","https://images-na.ssl-images-amazon.com/images/I/41hfatettsL._SR38,50_.jpg","http://www.amazon.co.uk/gp/product/B06XCYMWJ6/?tag=","aHR0cDovL3d3dy5hbWF6b24uY28udWsvZ3AvcHJvZHVjdC9CMDZYQ1lNV0o2Lz90YWc9"
"B06XVKW8YL","Dorothy Perkins Women's Ma1 Bomber Jacket","Women,Coats & Jackets,Jackets","","4.3","https://images-na.ssl-images-amazon.com/images/I/413K3uH-xuL._SR38,50_.jpg","http://www.amazon.co.uk/gp/product/B06XVKW8YL/?tag=","aHR0cDovL3d3dy5hbWF6b24uY28udWsvZ3AvcHJvZHVjdC9CMDZYVktXOFlMLz90YWc9"
"B01NASOQ5A","FIND Women's Oversized Peasant Blouse","Women,Blouses & Shirts","Product Description \t \t \t\t \t\t\tPerfect for warm summery days, this lightweight peasant blouse has an adjustable drawstring tie at the neck, cuffs and waist so you can pick the perfect shape. Team it with tapered trousers and trainers.","5","https://images-na.ssl-images-amazon.com/images/I/41xiB7VUMVL._SR38,50_.jpg","http://www.amazon.co.uk/gp/product/B01NASOQ5A/?tag=","aHR0cDovL3d3dy5hbWF6b24uY28udWsvZ3AvcHJvZHVjdC9CMDFOQVNPUTVBLz90YWc9"
"B06XDN13HV","Evans Women's Black Raincoat","Women,Snow & Rainwear","","4.5","https://images-na.ssl-images-amazon.com/images/I/41YtPiRqfRL._SR38,50_.jpg","http://www.amazon.co.uk/gp/product/B06XDN13HV/?tag=","aHR0cDovL3d3dy5hbWF6b24uY28udWsvZ3AvcHJvZHVjdC9CMDZYRE4xM0hWLz90YWc9"
"B01N9T0BT3","edc by Esprit Women's 047cc1g007 Jacket","Women,Coats & Jackets,Jackets","","4.5","https://images-na.ssl-images-amazon.com/images/I/517CIcM78IL._SR38,50_.jpg","http://www.amazon.co.uk/gp/product/B01N9T0BT3/?tag=","aHR0cDovL3d3dy5hbWF6b24uY28udWsvZ3AvcHJvZHVjdC9CMDFOOVQwQlQzLz90YWc9"
"B01N1UVGFN","FIND Women's Cropped Denim Jacket","Women,Coats & Jackets,Jackets","Product Description \t \t \t\t \t\t\tPerfect as a staple layering piece. In an authentic mid wash, this jacket comes in a fitted form with stitched detailing and secure button fastenings. Offering 4 pockets and soft collar with a lightweight feel, it is perfect for matching with light wash or dark denim, or throwing over a floral dress.","4.5","https://images-na.ssl-images-amazon.com/images/I/61hTLd9vKOL._SR38,50_.jpg","http://www.amazon.co.uk/gp/product/B01N1UVGFN/?tag=","aHR0cDovL3d3dy5hbWF6b24uY28udWsvZ3AvcHJvZHVjdC9CMDFOMVVWR0ZOLz90YWc9"
"B01MYD3AV2","Dorothy Perkins Women's Embroidered Denim Jacket","Women,Coats & Jackets,Jackets","","5","https://images-na.ssl-images-amazon.com/images/I/41c626HwonL._SR38,50_.jpg","http://www.amazon.co.uk/gp/product/B01MYD3AV2/?tag=","aHR0cDovL3d3dy5hbWF6b24uY28udWsvZ3AvcHJvZHVjdC9CMDFNWUQzQVYyLz90YWc9"
"B06XJTQDV3","Evans Women's Navy Raincoat","Women,Snow & Rainwear","","5","https://images-na.ssl-images-amazon.com/images/I/41nYWXHh84L._SR38,50_.jpg","http://www.amazon.co.uk/gp/product/B06XJTQDV3/?tag=","aHR0cDovL3d3dy5hbWF6b24uY28udWsvZ3AvcHJvZHVjdC9CMDZYSlRRRFYzLz90YWc9"
"B01N421YPA","Geox Women's Woman Jacket","Women,Coats & Jackets,Jackets","Designer: GeoxItem: W7223E T2334Outer material: nylon stretchcolor:details: smart, cool, practical, in one word nebula.this women's jacket combines the qualities of clothing geox patented techniques.comfort and maximum breathability, with a cosmopolitan attitude, practice and performance.the special lateral and dorsal increase the ventilation openings allowing the head to breathe at 360 _.detachable hood, zip fast-flowing, designed to adapt to the movements of the body.","5","https://images-na.ssl-images-amazon.com/images/I/41nz%2BUIjsIL._SR38,50_.jpg","http://www.amazon.co.uk/gp/product/B01N421YPA/?tag=","aHR0cDovL3d3dy5hbWF6b24uY28udWsvZ3AvcHJvZHVjdC9CMDFONDIxWVBBLz90YWc9"
"B01MYA4IOU","ONLY Women's Onlnova Vis Wvn Bomber Jacket","Women,Coats & Jackets,Jackets","","5","https://images-na.ssl-images-amazon.com/images/I/51ETvW-rC7L._SR38,50_.jpg","http://www.amazon.co.uk/gp/product/B01MYA4IOU/?tag=","aHR0cDovL3d3dy5hbWF6b24uY28udWsvZ3AvcHJvZHVjdC9CMDFNWUE0SU9VLz90YWc9"
"B01N6NQ41J","Dorothy Perkins Women's Belted Dolly Coat","Women,Coats & Jackets,Coats","","5","https://images-na.ssl-images-amazon.com/images/I/41%2ByxFtgDYL._SR38,50_.jpg","http://www.amazon.co.uk/gp/product/B01N6NQ41J/?tag=","aHR0cDovL3d3dy5hbWF6b24uY28udWsvZ3AvcHJvZHVjdC9CMDFONk5RNDFKLz90YWc9"